20210709_112802 [I][1796400896]
20210709_112802 [I] [DEL] Thread id is 1796400896d, list->count : 20 , list->g_count : 264 

20210709_112802 [I][1779615488]
20210709_112802 [I] [DEL] Thread id is 1779615488d, list->count : 16 , list->g_count : 238 

20210709_112802 [I][1788008192]
20210709_112802 [I] [DEL] Thread id is 1788008192d, list->count : 22 , list->g_count : 254 

20210709_112802 [I][1796400896]
20210709_112802 [I] [DEL] Thread id is 1796400896d, list->count : 19 , list->g_count : 265 

20210709_112802 [I][1771222784]
20210709_112802 [I] [ADD] Thread id is 1771222784d, list->count : 26 , list->g_count : 258 

20210709_112802 [I][1754437376]
20210709_112802 [I] [ADD] Thread id is 1754437376d, list->count : 24 , list->g_count : 256 

20210709_112802 [I][1779615488]
20210709_112802 [I] [DEL] Thread id is 1779615488d, list->count : 18 , list->g_count : 266 

20210709_112802 [I][1771222784]
20210709_112802 [I] [ADD] Thread id is 1771222784d, list->count : 17 , list->g_count : 269 

20210709_112802 [I][1762830080]
20210709_112802 [I] [ADD] Thread id is 1762830080d, list->count : 25 , list->g_count : 257 

20210709_112802 [I][1762830080]
20210709_112802 [I] [ADD] Thread id is 1762830080d, list->count : 19 , list->g_count : 273 

20210709_112802 [I][1762830080]
20210709_112802 [I] [ADD] Thread id is 1762830080d, list->count : 20 , list->g_count : 274 

20210709_112802 [I][1779615488]
20210709_112802 [I] [DEL] Thread id is 1779615488d, list->count : 17 , list->g_count : 271 

20210709_112802 [I][1788008192]
20210709_112802 [I] [DEL] Thread id is 1788008192d, list->count : 17 , list->g_count : 267 

20210709_112802 [I][1788008192]
20210709_112802 [I] [DEL] Thread id is 1788008192d, list->count : 19 , list->g_count : 277 

20210709_112802 [I][1788008192]
20210709_112802 [I] [DEL] Thread id is 1788008192d, list->count : 18 , list->g_count : 278 

20210709_112802 [I][1788008192]
20210709_112802 [I] [DEL] Thread id is 1788008192d, list->count : 17 , list->g_count : 279 

20210709_112802 [I][1788008192]
20210709_112802 [I] [DEL] Thread id is 1788008192d, list->count : 16 , list->g_count : 280 

