20210709_112802 [I][1771222784]
20210709_112802 [I] [ADD] Thread id is 1771222784d, list->count : 14 , list->g_count : 952 

20210709_112802 [I][1788008192]
20210709_112802 [I] [DEL] Thread id is 1788008192d, list->count : 12 , list->g_count : 948 

20210709_112802 [I][1779615488]
20210709_112802 [I] [DEL] Thread id is 1779615488d, list->count : 13 , list->g_count : 947 

20210709_112802 [I][1771222784]
20210709_112802 [I] [ADD] Thread id is 1771222784d, list->count : 22 , list->g_count : 962 

20210709_112802 [I][1762830080]
20210709_112802 [I] [ADD] Thread id is 1762830080d, list->count : 14 , list->g_count : 950 

20210709_112802 [I][1779615488]
20210709_112802 [I] [DEL] Thread id is 1779615488d, list->count : 20 , list->g_count : 964 

20210709_112802 [I][1754437376]
20210709_112802 [I] [ADD] Thread id is 1754437376d, list->count : 21 , list->g_count : 961 

20210709_112802 [I][1762830080]
20210709_112802 [I] [ADD] Thread id is 1762830080d, list->count : 22 , list->g_count : 966 

20210709_112802 [I][1796400896]
20210709_112802 [I] [DEL] Thread id is 1796400896d, list->count : 13 , list->g_count : 953 

20210709_112802 [I][1754437376]
20210709_112802 [I] [ADD] Thread id is 1754437376d, list->count : 22 , list->g_count : 968 

20210709_112802 [I][1754437376]
20210709_112802 [I] [ADD] Thread id is 1754437376d, list->count : 23 , list->g_count : 971 

20210709_112802 [I][1754437376]
20210709_112802 [I] [ADD] Thread id is 1754437376d, list->count : 24 , list->g_count : 972 

20210709_112802 [I][1754437376]
20210709_112802 [I] [ADD] Thread id is 1754437376d, list->count : 25 , list->g_count : 973 

20210709_112802 [I][1754437376]
20210709_112802 [I] [ADD] Thread id is 1754437376d, list->count : 26 , list->g_count : 974 

20210709_112802 [I][1754437376]
20210709_112802 [I] [ADD] Thread id is 1754437376d, list->count : 27 , list->g_count : 975 

20210709_112802 [I][1754437376]
20210709_112802 [I] [ADD] Thread id is 1754437376d, list->count : 28 , list->g_count : 976 

20210709_112802 [I][1754437376]
20210709_112802 [I] [ADD] Thread id is 1754437376d, list->count : 29 , list->g_count : 977 

