20210709_112755 [I][1804793600]
20210709_112755 [I] [ADD] Thread id is 1804793600d, list->count : 1 , list->g_count : 87 

20210709_112755 [I][1846757120]
20210709_112755 [I] [DEL] Thread id is 1846757120d, list->count : 0 , list->g_count : 86 

20210709_112755 [I][1813186304]
20210709_112755 [I] [ADD] Thread id is 1813186304d, list->count : 0 , list->g_count : 90 

20210709_112755 [I][1804793600]
20210709_112755 [I] [ADD] Thread id is 1804793600d, list->count : 1 , list->g_count : 91 

20210709_112755 [I][1821579008]
20210709_112755 [I] [DEL] Thread id is 1821579008d, list->count : 0 , list->g_count : 88 

20210709_112755 [I][1855149824]
20210709_112755 [I] [DEL] Thread id is 1855149824d, list->count : 0 , list->g_count : 90 

20210709_112755 [I][1846757120]
20210709_112755 [I] [DEL] Thread id is 1846757120d, list->count : 0 , list->g_count : 92 

20210709_112755 [I][1813186304]
20210709_112755 [I] [ADD] Thread id is 1813186304d, list->count : 0 , list->g_count : 94 

20210709_112755 [I][1821579008]
20210709_112755 [I] [DEL] Thread id is 1821579008d, list->count : 0 , list->g_count : 94 

20210709_112755 [I][1813186304]
20210709_112755 [I] [ADD] Thread id is 1813186304d, list->count : 1 , list->g_count : 95 

20210709_112755 [I][1829971712]
20210709_112755 [I] [DEL] Thread id is 1829971712d, list->count : 0 , list->g_count : 96 

20210709_112755 [I][1813186304]
20210709_112755 [I] [ADD] Thread id is 1813186304d, list->count : 1 , list->g_count : 97 

20210709_112755 [I][1821579008]
20210709_112755 [I] [DEL] Thread id is 1821579008d, list->count : 0 , list->g_count : 98 

20210709_112755 [I][1813186304]
20210709_112755 [I] [ADD] Thread id is 1813186304d, list->count : 1 , list->g_count : 99 

20210709_112755 [I][1804793600]
20210709_112755 [I] [ADD] Thread id is 1804793600d, list->count : 0 , list->g_count : 102 

20210709_112755 [I][1821579008]
20210709_112755 [I] [DEL] Thread id is 1821579008d, list->count : 0 , list->g_count : 102 

20210709_112755 [I][1804793600]
20210709_112755 [I] [ADD] Thread id is 1804793600d, list->count : 1 , list->g_count : 105 

